,thread 0,thread 1,thread 2,thread 3,thread 4,thread 5,thread 6,thread 7,thread 8,thread 9,thread 10,thread 11,thread 12,thread 13,thread 14,thread 15,thread 16,thread 17,thread 18,thread 19
0,52.2168,71.2525,53.8444,44.2333,42.7377,36.0237,71.9181,42.2983,71.6685,27.496,180.75599999999997,75.1795,20.9019,65.3475,39.3847,55.2089,73.2397,69.0515,67.4481,74.1087
1,29.18,56.8323,55.4438,68.7727,69.2006,72.9261,70.2533,73.7249,55.7963,27.1966,59.7137,2.45495,59.1957,19.0021,1.20649,69.5312,34.7925,0.35434099999999996,31.5519,45.5684
2,61.5346,59.1603,67.1434,70.9536,61.3711,72.382,53.3028,69.3746,27.9707,17.4165,56.873999999999995,72.8353,2.04029,70.2579,63.3281,0.460079,9.58967,32.3837,35.8102,3.53263
3,68.1431,58.5304,17.6433,65.0105,41.9308,42.5269,30.9286,26.7878,12.5156,31.0675,57.1452,3.5939300000000003,67.7855,17.517,66.9672,54.8721,66.58800000000001,56.7011,65.2041,29.4141
4,70.1319,65.7751,66.931,14.5968,38.536,31.6483,68.6595,40.9426,3.0129,65.9338,73.9559,22.6365,19.9258,48.9763,58.0546,59.9898,69.2604,69.4389,39.576,58.4429
5,42.4306,,33.4932,53.6639,29.1147,7.78481,70.8611,53.6628,65.4476,70.6107,11.7569,,17.5923,7.71431,23.8876,44.602,15.7549,56.1772,,51.6348
6,34.5093,,66.4093,70.7437,41.2828,70.0762,,,63.8009,39.073,52.9271,,41.083,35.3153,55.0969,,48.2734,8.6429,,62.6759
7,38.9376,,68.0456,0.926074,24.3301,0.80681,,,72.9026,40.0592,43.1027,,56.2705,45.8126,52.5498,,67.1885,51.0863,,30.5813
8,67.0707,,16.2675,,52.0808,62.3081,,,7.63363,50.3023,68.0767,,31.0342,18.1846,15.5222,,60.9836,,,32.181999999999995
9,34.6717,,22.5412,,48.88399999999999,,,,17.4427,45.5163,,,66.9713,59.2157,47.9284,,9.96085,,,77.2082
10,3.09091,,52.6237,,,,,,67.1449,2.27085,,,37.2337,71.8448,,,,,,71.9046
11,31.2667,,66.0666,,,,,,72.039,11.222000000000001,,,,,,,,,,
12,56.9109,,7.89456,,,,,,40.8783,68.2392,,,,,,,,,,
13,,,64.7241,,,,,,34.0684,14.3181,,,,,,,,,,
14,,,20.7297,,,,,,,,,,,,,,,,,
15,,,5.5988,,,,,,,,,,,,,,,,,
