,thread 0,thread 1,thread 2,thread 3,thread 4,thread 5,thread 6,thread 7,thread 8,thread 9,thread 10,thread 11,thread 12,thread 13,thread 14,thread 15,thread 16,thread 17,thread 18,thread 19
0,3.30672,20.2637,31.5519,8.33854,6.56208,57.4325,69.4779,55.9537,72.411,68.6945,38.1471,21.9388,71.7764,69.1395,60.2309,51.0627,64.1646,70.4141,45.5205,58.4893
1,72.5119,58.9854,58.3134,63.3761,7.861560000000001,17.9888,18.1586,26.2849,60.683,11.0959,70.6107,34.1449,40.1501,65.7765,19.8734,72.8046,53.7738,34.4117,70.3648,16.8144
2,7.39728,39.5815,15.8097,57.9481,58.8253,60.0478,54.6363,5.46075,7.71431,25.6389,71.6426,55.3238,68.0247,24.8498,68.084,64.814,64.7632,4.81034,52.9678,14.2344
3,60.5203,67.2705,21.8916,61.2715,48.6041,65.1492,52.5669,71.249,5.616230000000001,60.445,7.77977,69.2083,44.7946,43.0666,26.2865,22.4642,61.1128,65.7002,57.6689,39.484
4,71.7493,64.6752,57.4521,6.34664,21.6084,,27.4073,35.1634,,58.1556,70.3017,53.4338,,9.01407,53.9602,59.0213,49.5429,66.2028,3.88639,69.5018
5,74.2069,53.9679,53.6628,66.931,56.2376,,40.1787,1.76027,,23.666999999999998,48.659,2.99384,,50.754,14.0379,54.2572,3.0144,10.8352,15.988,69.3371
6,10.1878,7.1587,,66.3063,59.3112,,25.5056,55.2684,,,,13.5974,,31.3603,59.9903,13.5866,48.0169,50.5022,60.4303,7.594189999999999
7,,47.5132,,53.0178,68.1707,,66.3535,52.4174,,,,9.75948,,48.857,,27.1175,42.3032,11.3687,31.1884,6.22044
8,,46.6187,,57.03,,,,,,,,,,58.2851,,63.305,60.4763,24.3301,17.3897,
9,,,,57.3606,,,,,,,,,,,,4.27493,69.3329,,,
10,,,,58.9506,,,,,,,,,,,,62.0689,14.3181,,,
11,,,,,,,,,,,,,,,,,71.5235,,,
