,thread 0,thread 1,thread 2,thread 3,thread 4,thread 5,thread 6,thread 7,thread 8,thread 9,thread 10,thread 11,thread 12,thread 13,thread 14,thread 15,thread 16,thread 17,thread 18,thread 19
0,67.2911,24.0433,14.1118,52.8515,4.48874,59.523,21.71,27.3604,56.0219,67.7765,68.6549,19.616,65.467,27.1002,10.099,71.5571,72.1231,63.812,31.6554,33.2858
1,18.3445,74.8587,60.9052,59.5062,34.931999999999995,51.5123,46.2498,19.2053,25.6821,31.5779,64.7978,35.7958,71.6603,53.6231,27.2397,68.7585,14.8447,44.7002,73.4781,27.4652
2,69.1735,55.9025,1.6778400000000002,25.1472,74.2164,9.84033,42.6025,63.6262,28.7878,54.9191,13.0776,20.9101,57.1726,17.506,16.3235,65.0157,30.0396,13.1624,69.8408,105.56299999999999
3,61.4657,14.0444,64.6977,34.0399,41.2498,46.5641,60.7167,54.8042,62.7269,68.3729,35.6797,48.4824,35.2148,5.59125,10.1522,63.2402,14.8084,67.6967,38.8664,74.9266
4,1.8469099999999998,67.6767,55.231,38.4236,1.43955,56.6573,53.5343,69.9567,22.2387,16.836,32.2743,49.3857,42.9157,69.7741,15.3654,72.2457,66.8301,7.29524,5.00732,56.1529
5,,52.5813,64.4816,47.7528,63.2192,20.0705,70.6981,30.9064,19.0738,21.4743,51.7117,11.3245,12.4276,18.2801,33.3497,38.6124,,34.7424,59.0048,34.5235
6,,,46.5502,10.4028,,68.6859,18.3331,56.2515,65.8833,62.8024,19.8968,6.66225,53.2996,19.4058,70.7921,26.261,,48.443000000000005,22.1647,52.1721
7,,,42.9504,2.14451,,15.2114,67.8488,41.2156,64.9146,,50.9101,66.6034,62.4275,29.0529,69.298,36.2157,,,18.0566,68.3893
8,,,,72.6487,,18.8292,,,37.1585,,51.5848,,6.43285,1.4793100000000001,58.7711,12.357999999999999,,,,27.1779
9,,,,4.2198199999999995,,76.0603,,,72.8129,,73.4988,,67.345,,,7.461539999999999,,,,51.0346
10,,,,,,71.5916,,,63.1487,,51.2433,,,,,,,,,32.589
11,,,,,,,,,,,25.0554,,,,,,,,,3.16317
12,,,,,,,,,,,,,,,,,,,,68.4128
