,thread 0,thread 1,thread 2,thread 3,thread 4,thread 5,thread 6,thread 7,thread 8,thread 9,thread 10,thread 11,thread 12,thread 13,thread 14,thread 15,thread 16,thread 17,thread 18,thread 19
0,40.0402,65.4991,58.8139,71.001,60.0025,52.7737,8.07749,67.3156,6.1489400000000005,63.8885,68.4386,62.3765,66.4251,7.133210000000001,67.9688,71.0021,36.0174,35.344,9.63395,9.86996
1,5.537380000000001,56.9401,40.8094,13.6824,71.3456,4.52388,45.9519,24.991999999999997,64.5205,51.56100000000001,31.5243,41.1753,63.0455,35.8231,8.601989999999999,0.338252,70.4856,62.004,33.3106,60.2494
2,76.4309,63.3075,35.736,14.8543,52.9325,5.00279,6.33325,58.7558,35.6374,21.2049,63.7303,10.4322,11.565999999999999,72.85300000000001,24.1053,3.12865,72.8268,56.7731,7.711110000000001,10.622
3,7.2281699999999995,72.2629,74.4031,45.583999999999996,25.4092,6.45589,31.7807,54.2974,35.8454,20.6741,52.96,66.9293,4.5976300000000005,25.0304,5.34542,70.9195,65.2455,10.7948,15.933,0.981865
4,1.0920100000000001,46.9144,61.4358,66.7981,66.8122,,26.9397,55.9419,19.9472,74.2588,71.5214,53.5999,49.7243,0.210806,73.04899999999999,58.7721,,30.9837,66.1334,10.8551
5,55.4421,36.9105,71.5301,3.35575,,,46.4266,64.2422,63.8911,69.0033,23.4595,52.9527,41.3574,48.9934,20.3679,2.9130000000000003,,67.9349,44.3866,41.68
6,,50.1152,,46.2149,,,,,47.4065,72.4638,69.8989,8.73811,16.8918,57.6573,68.2378,5.181769999999999,,61.1408,11.3321,67.1877
7,,,,28.3483,,,,,60.983999999999995,46.008,,50.3251,56.0983,65.9858,31.0906,70.3634,,53.1769,53.0076,67.1623
8,,,,,,,,,56.5825,67.2929,,52.0632,69.848,46.0809,,43.2984,,33.3963,,67.1784
9,,,,,,,,,,65.2089,,48.2413,63.4115,19.7165,,52.8212,,13.61,,51.3172
10,,,,,,,,,,,,,65.4675,2.81333,,,,,,66.6337
11,,,,,,,,,,,,,33.9825,36.5979,,,,,,
12,,,,,,,,,,,,,66.1099,13.9223,,,,,,
13,,,,,,,,,,,,,68.3328,,,,,,,
