,thread 0,thread 1,thread 2,thread 3,thread 4,thread 5,thread 6,thread 7,thread 8,thread 9,thread 10,thread 11,thread 12,thread 13,thread 14,thread 15,thread 16,thread 17,thread 18,thread 19
0,55.7963,26.5772,3.50371,58.4893,34.4117,70.4141,32.3837,74.0392,47.3825,12.3789,5.616230000000001,71.4204,19.9753,43.3538,53.4394,17.4165,48.1315,2.61476,60.683,16.2444
1,31.0675,16.8144,58.4429,55.2089,57.4884,70.6107,9.533389999999999,15.0293,35.309,69.5018,53.0178,42.5502,2.04029,64.7632,69.2006,27.0404,34.1449,54.5709,14.2394,55.3238
2,14.2344,22.5412,58.5606,67.2705,29.1147,11.4149,36.8359,59.9903,31.6518,69.3371,56.9101,14.5968,54.6363,2.93554,55.9698,68.41,31.5519,61.3711,67.1434,7.71431
3,,16.3234,14.9837,1.76027,45.3188,30.9286,67.9433,71.5235,62.8865,25.0081,44.602,50.5022,42.3473,19.9258,54.2572,4.77148,29.4141,6.34664,28.467,
4,,53.6628,75.4753,39.9247,32.181999999999995,13.5929,5.46075,,60.9836,48.659,,70.3017,62.3447,,8.6429,,54.0064,66.931,17.6433,
5,,31.0229,31.1327,,,1.37713,56.4051,,14.3181,,,,41.3224,,40.1787,,69.2767,42.4306,57.1452,
6,,179.86700000000002,,,,24.3301,54.3396,,,,,,,,66.1912,,16.4033,71.249,34.9191,
7,,,,,,30.055999999999997,34.8492,,,,,,,,77.2416,,11.3687,,63.129,
8,,,,,,31.3603,66.8815,,,,,,,,,,37.1387,,,
9,,,,,,55.1264,57.03,,,,,,,,,,7.78481,,,
10,,,,,,50.9054,67.9989,,,,,,,,,,0.80681,,,
11,,,,,,70.8611,0.00461094,,,,,,,,,,,,,
12,,,,,,,9.96085,,,,,,,,,,,,,
