,thread 0,thread 1,thread 2,thread 3,thread 4,thread 5,thread 6,thread 7,thread 8,thread 9,thread 10,thread 11,thread 12,thread 13,thread 14,thread 15,thread 16,thread 17,thread 18,thread 19
0,60.6454,60.8969,65.6739,36.2664,40.0091,23.5173,68.4386,72.85300000000001,27.2397,70.5735,5.537380000000001,67.2701,46.4034,35.6374,11.565999999999999,67.9688,65.0991,2.60045,63.3574,67.2438
1,9.03709,66.1645,8.88291,24.1386,4.52388,68.5223,0.21585100000000002,8.07749,3.81843,71.0021,51.5115,2.76126,65.4874,57.6573,24.5472,57.9526,44.3883,73.2969,60.2494,56.9401
2,56.3084,10.622,65.447,76.4309,17.9661,29.6817,3.85259,53.097,10.064,31.4804,0.981865,58.5667,54.2229,52.9527,71.676,41.68,6.3985,61.8903,35.8231,34.5137
3,13.6824,71.3456,67.0676,69.848,34.5588,51.6015,34.1872,54.3651,61.4358,37.5761,0.9110209999999999,26.9944,71.4067,70.7921,38.6052,45.56399999999999,16.8918,24.991999999999997,33.1105,31.2276
4,22.1588,25.0304,15.3233,38.9724,42.8088,49.7243,32.7896,54.3603,55.4421,74.4031,69.7507,19.7165,71.5214,67.9446,45.583999999999996,50.7008,47.3703,25.799,36.3923,63.7303
5,21.2049,0.210806,63.4115,68.4527,45.9519,37.2493,61.3493,42.1004,,49.9121,95.3292,72.6574,43.7896,11.3321,66.7981,69.8989,63.4597,6.39036,63.8876,60.9895
6,72.8268,63.0744,46.2485,,13.0962,41.3574,73.04899999999999,5.22842,,48.2413,46.3268,52.8212,52.4092,63.2833,63.7267,,66.4354,64.42399999999999,34.8405,33.0441
7,46.9305,3.35575,31.0906,,56.0799,70.4846,68.2378,67.1784,,,53.0076,,8.73811,,57.076,,,68.847,10.8551,64.2953
8,7.2281699999999995,43.6062,,,49.9956,69.9567,65.9706,19.4058,,,,,33.9236,,3.12865,,,2.0649599999999997,45.3369,47.5089
9,35.9582,25.073,,,65.2455,5.181769999999999,,51.33,,,,,27.1779,,36.9105,,,33.9825,23.3697,33.3963
10,43.2984,,,,20.3679,37.249,,72.4638,,,,,,,36.2438,,,49.5851,12.3585,27.1648
11,,,,,66.8122,67.1623,,46.008,,,,,,,,,,66.1099,46.2149,54.0551
12,,,,,6.45589,26.708000000000002,,67.2929,,,,,,,,,,,8.66713,
13,,,,,,57.5885,,65.3104,,,,,,,,,,,,
14,,,,,,,,69.2687,,,,,,,,,,,,
