,thread 0,thread 1,thread 2,thread 3,thread 4,thread 5,thread 6,thread 7,thread 8,thread 9,thread 10,thread 11,thread 12,thread 13,thread 14,thread 15,thread 16,thread 17,thread 18,thread 19
0,53.1,4.52388,21.2049,67.6147,65.0991,5.53731,13.6824,37.3034,46.4034,3.81843,49.5913,68.4386,63.7303,39.0893,68.5223,67.2701,68.3943,24.1745,67.9688,9.03709
1,35.8231,53.9046,56.9436,17.9661,45.9126,14.6735,8.88291,63.0744,60.2494,46.9305,27.2397,65.6739,45.583999999999996,2.60045,67.1486,31.4804,31.6518,15.075999999999999,11.565999999999999,39.8652
2,29.6817,25.799,68.2378,39.6536,11.2546,35.9582,72.2736,70.4846,43.6958,12.3585,72.85300000000001,56.9401,10.8551,0.981865,34.5137,66.9489,15.8193,3.85259,31.02,74.442
3,54.2229,64.42399999999999,33.9825,24.991999999999997,33.8725,67.9446,37.249,58.5667,45.9519,69.848,0.210806,43.5009,26.1591,71.676,63.8876,60.3744,27.3905,47.5089,2.76126,36.3604
4,37.2493,23.9162,33.3963,49.7243,71.3456,46.008,46.2149,69.9567,76.4309,10.064,42.8088,71.3865,16.4955,47.4646,4.5904,56.0799,72.4638,67.0676,33.0441,0.21585100000000002
5,50.9101,37.5761,33.3498,6.3985,24.5472,,63.4115,63.6701,15.3233,68.9912,68.9871,31.2276,61.6773,57.6573,8.66713,3.12865,62.5772,67.1623,45.56399999999999,32.7896
6,71.5214,74.4031,,57.076,38.6052,,55.4421,26.451999999999998,,,65.2455,34.8405,63.2833,65.3336,61.4358,16.8918,,63.4597,67.1784,64.2928
7,20.3679,73.04899999999999,,3.35575,49.9956,,,11.3321,,,71.1755,56.56399999999999,,41.68,,49.9121,,37.7429,43.2984,15.1776
8,68.847,19.4058,,66.8122,43.3712,,,,,,70.7921,13.1208,,52.4092,,26.708000000000002,,27.1648,,
9,66.1099,60.9273,,,33.9236,,,,,,66.7048,55.1701,,8.73811,,69.8989,,53.0076,,
10,,6.45589,,,,,,,,,,54.3603,,48.2413,,27.1779,,,,
11,,,,,,,,,,,,19.7165,,31.0906,,52.8212,,,,
12,,,,,,,,,,,,46.2485,,54.1621,,,,,,
