,thread 0,thread 1,thread 2,thread 3,thread 4,thread 5,thread 6,thread 7,thread 8,thread 9,thread 10,thread 11,thread 12,thread 13,thread 14,thread 15,thread 16,thread 17,thread 18,thread 19
0,13.5134,2.99667,63.0455,37.1755,35.6486,9.86996,67.6147,52.7737,4.32607,0.338252,60.0645,35.8052,58.5023,67.1486,29.2681,11.565999999999999,41.1753,68.5572,35.344,25.0304
1,31.0906,66.9489,67.1603,54.6806,24.1053,6.38162,25.1608,8.66147,25.6418,39.6807,36.0175,5.181769999999999,28.4369,55.8118,44.8513,70.4856,2.3816200000000003,41.3574,69.7433,56.4277
2,68.3328,11.1904,8.12543,,56.7731,54.4049,25.6148,35.8454,11.5332,72.2736,36.8783,25.4092,27.0056,37.900999999999996,68.2378,7.630839999999999,40.5878,70.4944,26.1026,18.4303
3,,,57.5386,,20.6461,31.7751,13.6185,59.141999999999996,,13.6746,67.0514,61.4358,67.1559,52.2895,,41.5779,66.9293,50.8932,46.2713,
4,,,64.6945,,72.8268,68.8921,33.9825,52.6573,,,7.2281699999999995,,67.1784,52.9527,,,74.4031,66.8122,63.8911,
5,,,19.4652,,52.96,69.0033,15.1776,49.7243,,,21.2319,,35.3755,6.42131,,,66.315,48.8257,20.3872,
6,,,42.4683,,71.5214,38.2465,71.5301,2.9130000000000003,,,33.4051,,,21.7572,,,,,33.9262,
7,,,0.950486,,36.3747,72.4638,,70.3634,,,10.58,,,,,,,,,
8,,,67.2929,,9.47437,11.3321,,54.1139,,,,,,,,,,,,
9,,,65.2089,,,56.5786,,,,,,,,,,,,,,
